{
  "nav_icon": "chester_icon.png",
  "firstPhotoId": "112000",
  "firstPhotoRotation": 150,
  "soundEffects": {
    "navButton": {
      "onEnter": {
        "uri": "switch-flip.wav",
        "attributionUri": "https://www.freesound.org/people/ianstargem/sounds/278205/"
      },
      "onClick": {
        "uri": "menu-click.wav",
        "attributionUri": "https://www.freesound.org/people/fins/sounds/146721/"
      }
    },
    "infoButton": {
      "onEnter": {
        "uri": "switch-flip.wav",
        "attributionUri": "https://www.freesound.org/people/ianstargem/sounds/278205/"
      }
    }
  },
  "photos": {
      "112000": {
      "rotationOffset": 90,
      "uri": "chess-world.jpg",
      "tooltips": [
        {
          "text": "rektörlük",
          "rotationY": 10,
          "linkedPhotoId": "112275"
        },
        {
          "text": "spor salonu",
          "rotationY": 30,
          "linkedPhotoId": "112287"
        },
        {
          "text": "L Blok",
          "rotationY": 50,
          "linkedPhotoId": "112174"
        },
        {
          "text": "HA",
          "rotationY": 70,
          "linkedPhotoId": "112202"
        },
        {
          "text": "M BLOK",
          "rotationY": 90,
          "linkedPhotoId": "112220"
        },
        {
          "text": "öğrenci işleri",
          "rotationY": 110,
          "linkedPhotoId": "112274"
        },
        {
          "text": "K Blok",
          "rotationY": 130,
          "linkedPhotoId": "112099"
        },
        {
          "text": "Ortak Alan",
          "rotationY": 150,
          "linkedPhotoId": "112246"
        },
        {
          "text": "Hazırlık",
          "rotationY": 170,
          "linkedPhotoId": "112335"
        }
      ]
    },
    "112335": {
      "rotationOffset": 0,
      "uri": "360_0335.JPG",
      "tooltips": [
        {
          "text": "ileri",
          "rotationY": 135,
          "linkedPhotoId": "112330"
        },
        {
          "text": "geri",
          "rotationY": -10,
          "linkedPhotoId": "112332"
        }
      ]
    },
    "112053": {
      "rotationOffset": 0,
      "uri": "360_0053.JPG",
      "tooltips": [
        {
          "text": "ileri",
          "rotationY": 0,
          "linkedPhotoId": "112052"
        },
        {
          "text": "geri",
          "rotationY": 140,
          "linkedPhotoId": "112054"
        },
        {
          "text": "M blok",
          "rotationY": -140,
          "linkedPhotoId": "112238"
        },
        {
          "text": "H blok-aşağı",
          "rotationY": 30,
          "linkedPhotoId": "112202"
        },
        {
          "text": "P Blok",
          "rotationY": 30,
          "linkedPhotoId": "112194"
        }
      ]
    },
    "112194": {
      "rotationOffset": 0,
      "uri": "360_0194.JPG",
      "tooltips": [
        {
          "text": "ileri",
          "rotationY": -90,
          "linkedPhotoId": "112195"
        },
        {
          "text": "aşağı",
          "rotationY": 50,
          "linkedPhotoId": "112200"
        },
        {
          "text": "geri",
          "rotationY": 30,
          "linkedPhotoId": "112053"
        }
      ]
    },
    "112195": {
      "rotationOffset": 0,
      "uri": "360_0195.JPG",
      "tooltips": [
        {
          "text": "ileri",
          "rotationY": -90,
          "linkedPhotoId": "112196"
        },
        {
          "text": "geri",
          "rotationY": -160,
          "linkedPhotoId": "112194"
        }
      ]
    },
    "112196": {
      "rotationOffset": 0,
      "uri": "360_0196.JPG",
      "tooltips": [
        {
          "text": "geri",
          "rotationY": -160,
          "linkedPhotoId": "112195"
        },
        {
          "text": "aşağı",
          "rotationY": 50,
          "linkedPhotoId": "112197"
        }
      ]
    },
    "112200": {
      "rotationOffset": 0,
      "uri": "360_0200.JPG",
      "tooltips": [
        {
          "text": "ileri",
          "rotationY": -90,
          "linkedPhotoId": "112199"
        },
        {
          "text": "yukarı",
          "rotationY": 20,
          "linkedPhotoId": "112194"
        },
        {
          "text": "aşağı",
          "rotationY": 50,
          "linkedPhotoId": "112205"
        },
        {
          "text": "h blok",
          "rotationY": 140,
          "linkedPhotoId": "112201"
        }

      ]
    },
    "112199": {
      "rotationOffset": 0,
      "uri": "360_0199.JPG",
      "tooltips": [
        {
          "text": "ileri",
          "rotationY": -90,
          "linkedPhotoId": "112198"
        },
        {
          "text": "geri",
          "rotationY": -160,
          "linkedPhotoId": "112200"
        }
      ]
    },
    "112198": {
      "rotationOffset": 0,
      "uri": "360_0198.JPG",
      "tooltips": [
        {
          "text": "ileri",
          "rotationY": -90,
          "linkedPhotoId": "112197"
        },
        {
          "text": "geri",
          "rotationY": -160,
          "linkedPhotoId": "112199"
        }
      ]
    },
    "112197": {
      "rotationOffset": 0,
      "uri": "360_0197.JPG",
      "tooltips": [
        {
          "text": "yukarı",
          "rotationY": 20,
          "linkedPhotoId": "112196"
        },
        {
          "text": "geri",
          "rotationY": -160,
          "linkedPhotoId": "112198"
        },
        {
          "text": "aşağı", 
          "rotationY": 50,
          "linkedPhotoId": "112207"
        }
      ]
    },
    "112205": {
      "rotationOffset": 0,
      "uri": "360_0205.JPG",
      "tooltips": [
        {
          "text": "ileri",
          "rotationY": -90,
          "linkedPhotoId": "112206"
        },
        {
          "text": "yukarı",
          "rotationY": 20,
          "linkedPhotoId": "112200"
        }

      ]
    },
    "112206": {
      "rotationOffset": 0,
      "uri": "360_0206.JPG",
      "tooltips": [
        {
          "text": "ileri",
          "rotationY": -90,
          "linkedPhotoId": "112207"
        },
        {
          "text": "geri",
          "rotationY": -160,
          "linkedPhotoId": "112205"
        }

      ]
    },

        "112207": {
          "rotationOffset": 0,
          "uri": "360_0207.JPG",
          "tooltips": [
            {
              "text": "yukarı",
              "rotationY": 20,
              "linkedPhotoId": "112197"
            },
            {
              "text": "geri",
              "rotationY": -160,
              "linkedPhotoId": "112206"
            }

          ]
        },
        "112054": {
          "rotationOffset": 0,
          "uri": "360_0054.JPG",
          "tooltips": [
            {
              "text": "next",
              "rotationY": 0,
              "linkedPhotoId": "112053"
            },
            {
              "text": "back",
              "rotationY": 140,
              "linkedPhotoId": "112057"
            }
          ]
        },
        "112057": {
          "rotationOffset": 0,
          "uri": "360_0057.JPG",
          "tooltips": [
            {
              "text": "next",
              "rotationY": 0,
              "linkedPhotoId": "112054"
            },
            {
              "text": "back",
              "rotationY": 140,
              "linkedPhotoId": "112245"
            }
          ]
        },
        "112245": {
          "rotationOffset": 0,
          "uri": "360_0245.JPG",
          "tooltips": [
            {
              "text": "next",
              "rotationY": 0,
              "linkedPhotoId": "112057"
            },
            {
              "text": "back",
              "rotationY": 140,
              "linkedPhotoId": "112246"
            }
          ]
        },
        "112246": {
          "rotationOffset": 0,
          "uri": "360_0246.JPG",
          "tooltips": [
            {
              "text": "next",
              "rotationY": 0,
              "linkedPhotoId": "112245"
            },
            {
              "text": "aşağı",
              "rotationY": 140,
              "linkedPhotoId": "112246"
            }
          ]
        },
        "112052": {
          "rotationOffset": 0,
          "uri": "360_0052.JPG",
          "tooltips": [
            {
              "text": "next",
              "rotationY": 0,
              "linkedPhotoId": "112047"
            },
            {
              "text": "back",
              "rotationY": 140,
              "linkedPhotoId": "112053"
            }
          ]
        },
        "112047": {
          "rotationOffset": 0,
          "uri": "360_0047.JPG",
          "tooltips": [
            {
              "text": "next",
              "rotationY": 0,
              "linkedPhotoId": "112046"
            },
            {
              "text": "back",
              "rotationY": 140,
              "linkedPhotoId": "112052"
            },
            {
              "text": "R blok",
              "rotationY": -140,
              "linkedPhotoId": "112121"
            },
            {
              "text": "3.kat",
              "rotationY": 30,
              "linkedPhotoId": "112095"
            },
            {
              "text": "L blok",
              "rotationY": -30,
              "linkedPhotoId": "112192"
            }
          ]
        },
        "112046": {
          "rotationOffset": 0,
          "uri": "360_0046.JPG",
          "tooltips": [
            {
              "text": "ileri",
              "rotationY": 0,
              "linkedPhotoId": "112045"
            },
            {
              "text": "geri",
              "rotationY": 30,
              "linkedPhotoId": "112047"
            },
            {
              "text": "amfi",
              "rotationY": -30,
              "linkedPhotoId": "112058"
            }
          ]
        },
        "112045": {
          "rotationOffset": 0,
          "uri": "360_0045.JPG",
          "tooltips": [
            {
              "text": "geri",
              "rotationY": 0,
              "linkedPhotoId": "112046"
            },
            {
              "text": "ileri",
              "rotationY": 30,
              "linkedPhotoId": "112044"
            }
          ]
        },
        "112044": {
          "rotationOffset": 0,
          "uri": "360_0044.JPG",
          "tooltips": [
            {
              "text": "geri",
              "rotationY": 0,
              "linkedPhotoId": "112045"
            },
            {
              "text": "ileri",
              "rotationY": 30,
              "linkedPhotoId": "112043"
            }
          ]
        },
        "112043": {
          "rotationOffset": 0,
          "uri": "360_0043.JPG",
          "tooltips": [
            {
              "text": "geri",
              "rotationY": 0,
              "linkedPhotoId": "112044"
            },
            {
              "text": "yeşim cafe",
              "rotationY": 30,
              "linkedPhotoId": "112039"
            },
            {
              "text": "sağ",
              "rotationY": -30,
              "linkedPhotoId": "112061"
            },
            {
              "text": "K Blok",
              "rotationY": 140,
              "linkedPhotoId": "112043"
            }
          ]
        },
        "112039": {
          "rotationOffset": 0,
          "uri": "360_0039.JPG",
          "tooltips": [
            {
              "text": "sağ",
              "rotationY": 75,
              "linkedPhotoId": "112040"
            },
            {
              "text": "sol",
              "rotationY": 20,
              "linkedPhotoId": "112038"
            },
            {
              "text": "geri",
              "rotationY": 50,
              "linkedPhotoId": "112043"
            }

          ]
        },
        "112038": {
          "rotationOffset": 0,
          "uri": "360_0038.JPG",
          "tooltips": [
            {
              "text": "ileri",
              "rotationY": -90,
              "linkedPhotoId": "112037"
            },
            {
              "text": "geri",
              "rotationY": -160,
              "linkedPhotoId": "112039"
            }
          ]
        },
        "112037": {
          "rotationOffset": 0,
          "uri": "360_0037.JPG",
          "tooltips": [
            {
              "text": "ileri",
              "rotationY": -90,
              "linkedPhotoId": "112036"
            },
            {
              "text": "geri",
              "rotationY": -160,
              "linkedPhotoId": "112038"
            }
          ]
        },
        "112036": {
          "rotationOffset": 0,
          "uri": "360_0036.JPG",
          "tooltips": [
            {
              "text": "sağ",
              "rotationY": 75,
              "linkedPhotoId": "112034"
            },
            {
              "text": "geri",
              "rotationY": -160,
              "linkedPhotoId": "112037"
            }

          ]
        },
        "112034": {
          "rotationOffset": 0,
          "uri": "360_0034.JPG",
          "tooltips": [
            {
              "text": "sağ",
              "rotationY": 75,
              "linkedPhotoId": "112042"
            },
            {
              "text": "sol",
              "rotationY": 20,
              "linkedPhotoId": "112036"
            }
          ]
        },
        "112042": {
          "rotationOffset": 0,
          "uri": "360_0042.JPG",
          "tooltips": [
            {
              "text": "sağ",
              "rotationY": 75,
              "linkedPhotoId": "112034"
            },
            {
              "text": "ileri",
              "rotationY": -90,
              "linkedPhotoId": "112041"
            }
          ]
        },
        "112041": {
          "rotationOffset": 0,
          "uri": "360_0041.JPG",
          "tooltips": [
            {
              "text": "ileri",
              "rotationY": -90,
              "linkedPhotoId": "112042"
            },
            {
              "text": "geri",
              "rotationY": -160,
              "linkedPhotoId": "112040"
            }
          ]
        },
        "112040": {
          "rotationOffset": 0,
          "uri": "360_0040.JPG",
          "tooltips": [
            {
              "text": "ileri",
              "rotationY": -90,
              "linkedPhotoId": "112041"
            },
            {
              "text": "geri",
              "rotationY": -160,
              "linkedPhotoId": "112039"
            }
          ]
        },
        "112061": {
          "rotationOffset": 0,
          "uri": "360_0061.JPG",
          "tooltips": [
            {
              "text": "geri",
              "rotationY": 0,
              "linkedPhotoId": "112043"
            },
            {
              "text": "yukarı",
              "rotationY": 30,
              "linkedPhotoId": "112063"
            }
          ]
        },
        "112063": {
          "rotationOffset": 0,
          "uri": "360_0063.JPG",
          "tooltips": [
            {
              "text": "aşağı",
              "rotationY": 0,
              "linkedPhotoId": "112061"
            },
            {
              "text": "ileri",
              "rotationY": 30,
              "linkedPhotoId": "112140"
            },
            {
              "text": "yukarı",
              "rotationY": -30,
              "linkedPhotoId": "112064"
            }
          ]
        },
        "112064": {
          "rotationOffset": 0,
          "uri": "360_0064.JPG",
          "tooltips": [
            {
              "text": "aşağı",
              "rotationY": 0,
              "linkedPhotoId": "112063"
            },
            {
              "text": "sağ",
              "rotationY": 30,
              "linkedPhotoId": "112068"
            },
            {
              "text": "sol",
              "rotationY": -30,
              "linkedPhotoId": "112099"
            },
            {
              "text": "yemekhane",
              "rotationY": 140,
              "linkedPhotoId": "112243"
            },
            {
              "text": "Game Lab",
              "rotationY": -140,
              "linkedPhotoId": "GameLab"
            },
            {
              "text": "PC Lab",
              "rotationY": 60,
              "linkedPhotoId": "PCLab"
            }
          ]
        },
        "GameLab": {
          "rotationOffset": 0,
          "uri": "GameLab.JPG",
          "tooltips": [
            {
              "text": "geri",
              "rotationY": 0,
              "linkedPhotoId": "112064"
            }
          ]
        },
        "PCLab": {
          "rotationOffset": 0,
          "uri": "PCLab.JPG",
          "tooltips": [
            {
              "text": "geri",
              "rotationY": 0,
              "linkedPhotoId": "112064"
            }
          ]
        },

        "112068": {
          "rotationOffset": 0,
          "uri": "360_0068.JPG",
          "tooltips": [
            {
              "text": "geri",
              "rotationY": 0,
              "linkedPhotoId": "112064"
            },
            {
              "text": "ileri",
              "rotationY": 30,
              "linkedPhotoId": "112069"
            }
          ]
        },
        "112069": {
          "rotationOffset": 0,
          "uri": "360_0069.JPG",
          "tooltips": [
            {
              "text": "geri",
              "rotationY": 0,
              "linkedPhotoId": "112068"
            },
            {
              "text": "ileri",
              "rotationY": 30,
              "linkedPhotoId": "112070"
            }
          ]
        },
        "112070": {
          "rotationOffset": 0,
          "uri": "360_0070.JPG",
          "tooltips": [
            {
              "text": "geri",
              "rotationY": 0,
              "linkedPhotoId": "112069"
            },
            {
              "text": "ileri",
              "rotationY": 30,
              "linkedPhotoId": "112071"
            }
          ]
        },
        "112071": {
          "rotationOffset": 0,
          "uri": "360_0071.JPG",
          "tooltips": [
            {
              "text": "geri",
              "rotationY": 0,
              "linkedPhotoId": "112070"
            },
            {
              "text": "ileri",
              "rotationY": 30,
              "linkedPhotoId": "112072"
            }
          ]
        },
        "112072": {
          "rotationOffset": 0,
          "uri": "360_0072.JPG",
          "tooltips": [
            {
              "text": "geri",
              "rotationY": 0,
              "linkedPhotoId": "112071"
            },
            {
              "text": "ileri",
              "rotationY": 30,
              "linkedPhotoId": "112073"
            },
            {
              "text": "karşıya geç",
              "rotationY": -30,
              "linkedPhotoId": "112095"
            },
            {
              "text": "aşağı",
              "rotationY": -140,
              "linkedPhotoId": "112047"
            }
          ]
        },
        "112073": {
          "rotationOffset": 0,
          "uri": "360_0073.JPG",
          "tooltips": [
            {
              "text": "geri",
              "rotationY": 0,
              "linkedPhotoId": "112072"
            },
            {
              "text": "ileri",
              "rotationY": 30,
              "linkedPhotoId": "112074"
            }
          ]
        },
        "112074": {
          "rotationOffset": 0,
          "uri": "360_0074.JPG",
          "tooltips": [
            {
              "text": "geri",
              "rotationY": 0,
              "linkedPhotoId": "112073"
            },
            {
              "text": "ileri",
              "rotationY": 30,
              "linkedPhotoId": "112075"
            }
          ]
        },
        "112075": {
          "rotationOffset": 0,
          "uri": "360_0075.JPG",
          "tooltips": [
            {
              "text": "geri",
              "rotationY": 0,
              "linkedPhotoId": "112074"
            },
            {
              "text": "ileri",
              "rotationY": 30,
              "linkedPhotoId": "112078"
            }
          ]
        },
        "112078": {
          "rotationOffset": 0,
          "uri": "360_0078.JPG",
          "tooltips": [
            {
              "text": "geri",
              "rotationY": 0,
              "linkedPhotoId": "112075"
            },
            {
              "text": "ileri",
              "rotationY": 30,
              "linkedPhotoId": "112079"
            }
          ]
        },
        "112079": {
          "rotationOffset": 0,
          "uri": "360_0079.JPG",
          "tooltips": [
            {
              "text": "geri",
              "rotationY": 0,
              "linkedPhotoId": "112078"
            },
            {
              "text": "ileri",
              "rotationY": 30,
              "linkedPhotoId": "112080"
            }
          ]
        },
        "112080": {
          "rotationOffset": 0,
          "uri": "360_0080.JPG",
          "tooltips": [
            {
              "text": "geri",
              "rotationY": 0,
              "linkedPhotoId": "112079"
            },
            {
              "text": "ileri",
              "rotationY": 30,
              "linkedPhotoId": "112085"
            }
          ]
        },
        "112085": {
          "rotationOffset": 0,
          "uri": "360_0085.JPG",
          "tooltips": [
            {
              "text": "geri",
              "rotationY": 0,
              "linkedPhotoId": "112080"
            },
            {
              "text": "ileri",
              "rotationY": 30,
              "linkedPhotoId": "112086"
            }
          ]
        },
        "112086": {
          "rotationOffset": 0,
          "uri": "360_0086.JPG",
          "tooltips": [
            {
              "text": "geri",
              "rotationY": 0,
              "linkedPhotoId": "112085"
            },
            {
              "text": "ileri",
              "rotationY": 30,
              "linkedPhotoId": "112090"
            }
          ]
        },
        "112090": {
          "rotationOffset": 0,
          "uri": "360_0090.JPG",
          "tooltips": [
            {
              "text": "geri",
              "rotationY": 0,
              "linkedPhotoId": "112086"
            },
            {
              "text": "ileri",
              "rotationY": 30,
              "linkedPhotoId": "112091"
            }
          ]
        },
        "112091": {
          "rotationOffset": 0,
          "uri": "360_0091.JPG",
          "tooltips": [
            {
              "text": "geri",
              "rotationY": 0,
              "linkedPhotoId": "112090"
            },
            {
              "text": "ileri",
              "rotationY": 30,
              "linkedPhotoId": "112092"
            }
          ]
        },
        "112092": {
          "rotationOffset": 0,
          "uri": "360_0092.JPG",
          "tooltips": [
            {
              "text": "geri",
              "rotationY": 0,
              "linkedPhotoId": "112091"
            },
            {
              "text": "ileri",
              "rotationY": 30,
              "linkedPhotoId": "112093"
            }
          ]
        },
        "112093": {
          "rotationOffset": 0,
          "uri": "360_0093.JPG",
          "tooltips": [
            {
              "text": "geri",
              "rotationY": 0,
              "linkedPhotoId": "112092"
            },
            {
              "text": "ileri",
              "rotationY": 30,
              "linkedPhotoId": "112094"
            }
          ]
        },
        "112094": {
          "rotationOffset": 0,
          "uri": "360_0094.JPG",
          "tooltips": [
            {
              "text": "geri",
              "rotationY": 0,
              "linkedPhotoId": "112093"
            },
            {
              "text": "ileri",
              "rotationY": 30,
              "linkedPhotoId": "112095"
            }
          ]
        },
        "112095": {
          "rotationOffset": 0,
          "uri": "360_0095.JPG",
          "tooltips": [
            {
              "text": "geri",
              "rotationY": 0,
              "linkedPhotoId": "112094"
            },
            {
              "text": "ileri",
              "rotationY": 30,
              "linkedPhotoId": "112096"
            }
          ]
        },
        "112096": {
          "rotationOffset": 0,
          "uri": "360_0096.JPG",
          "tooltips": [
            {
              "text": "geri",
              "rotationY": 0,
              "linkedPhotoId": "112095"
            },
            {
              "text": "ileri",
              "rotationY": 30,
              "linkedPhotoId": "112097"
            }
          ]
        },
        "112097": {
          "rotationOffset": 0,
          "uri": "360_0097.JPG",
          "tooltips": [
            {
              "text": "geri",
              "rotationY": 0,
              "linkedPhotoId": "112096"
            },
            {
              "text": "ileri",
              "rotationY": 30,
              "linkedPhotoId": "112098"
            }
          ]
        },
        "112098": {
          "rotationOffset": 0,
          "uri": "360_0098.JPG",
          "tooltips": [
            {
              "text": "geri",
              "rotationY": 0,
              "linkedPhotoId": "112097"
            },
            {
              "text": "ileri",
              "rotationY": 30,
              "linkedPhotoId": "112099"
            }
          ]
        },

        "112099": {
      "rotationOffset": 0,
      "uri": "360_0099.JPG",
      "tooltips": [
        {
          "text": "ileri",
          "rotationY": -15,
          "linkedPhotoId": "112100"
        },
        {
          "text": "ortak alan",
          "rotationY": 15,
          "linkedPhotoId": "112043"
        },
        {
          "text": "hazırlık",
          "rotationY": 30,
          "linkedPhotoId": "112335"
        }  
      ]
    },
    "112100": {
      "rotationOffset": 0,
      "uri": "360_0100.JPG",
      "tooltips": [
        {
          "text": "geri",
          "rotationY": -90,
          "linkedPhotoId": "112099"
        },
        {
          "text": "sinif",
          "rotationY": 15,
          "linkedPhotoId": "112101"
        },
        {
          "text": "ileri",
          "rotationY": 30,
          "linkedPhotoId": "112102"
        }
      ]
    },
    "112101": {
      "rotationOffset": 0,
      "uri": "360_0101.JPG",
      "tooltips": [
        {
          "text": "geri",
          "rotationY": 15,
          "linkedPhotoId": "112100"
        }
      ]
    },
    "112102": {
      "rotationOffset": 0,
      "uri": "360_0102.JPG",
      "tooltips": [
        {
          "text": "ileri",
          "rotationY": 75,
          "linkedPhotoId": "112103"
        },
        {

          "text": "asagi",
          "rotationY": 50,
          "linkedPhotoId": "112104"

        },
        {
          "text": "geri",
          "rotationY": 15,
          "linkedPhotoId": "112100"
        },
        {

          "text": "yukari",
          "rotationY": 30,
          "linkedPhotoId": "112109"

        }
      ]
    },
    "112103": {
      "rotationOffset": 0,
      "uri": "360_0103.JPG",
      "tooltips": [
        {
          "text": "geri-merdiven",
          "rotationY": 15,
          "linkedPhotoId": "112102"
        }
      ]
    },
    "112104": {
      "rotationOffset": 0,
      "uri": "360_0104.JPG",
      "tooltips": [
        {
          "text": "ileri",
          "rotationY": 75,
          "linkedPhotoId": "112105"
        },
        {
          "text": "yukari",
          "rotationY": 15,
          "linkedPhotoId": "112102"
        }
      ]
    },
    "112105": {
      "rotationOffset": 0,
      "uri": "360_0105.JPG",
      "tooltips": [
        {
          "text": "ileri-sag",
          "rotationY": 75,
          "linkedPhotoId": "112106"
        },
        {
          "text": "yukari",
          "rotationY": 15,
          "linkedPhotoId": "112104"
        },
        {
          "text": "ileri-sol",
          "rotationY": 30,
          "linkedPhotoId": "112107"
        }

      ]
    },
    "112106": {
      "rotationOffset": 0,
      "uri": "360_0106.JPG",
      "tooltips": [

        {
          "text": "geri",
          "rotationY": 15,
          "linkedPhotoId": "112105"
        }
      ]
    },
    "112107": {
      "rotationOffset": 0,
      "uri": "360_0107.JPG",
      "tooltips": [
        {
          "text": "sinif",
          "rotationY": 75,
          "linkedPhotoId": "112108"
        },
        {
          "text": "geri-merdiven",
          "rotationY": 50,
          "linkedPhotoId": "112105"
        }
      ]
    },
    "112108": {
      "rotationOffset": 0,
      "uri": "360_0108.JPG",
      "tooltips": [
        {
          "text": "geri",
          "rotationY": 15,
          "linkedPhotoId": "112107"
        }
      ]
    },
    "112109": {
      "rotationOffset": 0,
      "uri": "360_0109.JPG",
      "tooltips": [
        {
          "text": "ileri",
          "rotationY": 75,
          "linkedPhotoId": "112110"
        },
        {
          "text": "geri",
          "rotationY": 15,
          "linkedPhotoId": "112102"
        }
      ]
    },
    "112110": {
      "rotationOffset": 0,
      "uri": "360_0110.JPG",
      "tooltips": [
        {
          "text": "ileri",
          "rotationY": 75,
          "linkedPhotoId": "112111"
        },
        {
          "text": "asagi",
          "rotationY": 30,
          "linkedPhotoId": "112109"
        }
      ]
    },
    "112111": {
      "rotationOffset": 0,
      "uri": "360_0111.JPG",
      "tooltips": [
        {
          "text": "yukari(halkla iliskiler ve reklamcilik-siyaset bilimi ve kamu yönetimi)",
          "rotationY": 75,
          "linkedPhotoId": "112113"
        },
        {
          "text": "asagi",
          "rotationY": 15,
          "linkedPhotoId": "112110"
        }
      ]
    },
    "112113": {
      "rotationOffset": 0,
      "uri": "360_0113.JPG",
      "tooltips": [
        {
          "text": "ileri",
          "rotationY": 75,
          "linkedPhotoId": "112114"
        },
        {
          "text": "asagi",
          "rotationY": 15,
          "linkedPhotoId": "112111"
        }
      ]
    },
    "112114": {
      "rotationOffset": 0,
      "uri": "360_0114.JPG",
      "tooltips": [
        {
          "text": "ileri",
          "rotationY": 75,
          "linkedPhotoId": "112115"
        },
        {
          "text": "geri",
          "rotationY": 15,
          "linkedPhotoId": "112113"
        }
      ]
    },
    "112115": {
      "rotationOffset": 0,
      "uri": "360_0115.JPG",
      "tooltips": [
        {
          "text": "yukari",
          "rotationY": 75,
          "linkedPhotoId": "112116"
        },
        {
          "text": "geri",
          "rotationY": 15,
          "linkedPhotoId": "112114"
        },
        {
          "text": "asagi",
          "rotationY": 30,
          "linkedPhotoId": "112113"

        }
      ]
    },
    "112116": {
      "rotationOffset": 0,
      "uri": "360_0116.JPG",
      "tooltips": [
        {
          "text": "ileri",
          "rotationY": 75,
          "linkedPhotoId": "112118"
        }
      ]
    },
    "112118": {
      "rotationOffset": 0,
      "uri": "360_0118.JPG",
      "tooltips": [
        {
          "text": "ileri",
          "rotationY": 75,
          "linkedPhotoId": "112119"
        },
        {
          "text": "geri",
          "rotationY": 15,
          "linkedPhotoId": "112116"
        }
      ]
    },
    "112119": {
      "rotationOffset": 0,
      "uri": "360_0119.JPG",
      "tooltips": [
        {
          "text": "asagi",
          "rotationY": 15,
          "linkedPhotoId": "112115"
        },
        {
          "text": "geri",
          "rotationY": 30,
          "linkedPhotoId": "112118"
        }
      ]
    },
        "112243": {
          "rotationOffset": 0,
          "uri": "360_0243.JPG",
          "tooltips": [
            {
              "text": "geri",
              "rotationY": 0,
              "linkedPhotoId": "112064"
            },
            {
              "text": "sağ",
              "rotationY": 30,
              "linkedPhotoId": "112244"
            },
            {
              "text": "sol",
              "rotationY": -30,
              "linkedPhotoId": "112242"
            }
          ]
        },
        "112244": {
          "rotationOffset": 0,
          "uri": "360_0244.JPG",
          "tooltips": [
            {
              "text": "geri",
              "rotationY": 0,
              "linkedPhotoId": "112243"
            },
            {
              "text": "ileri",
              "rotationY": 30,
              "linkedPhotoId": "112239"
            }
          ]
        },
        "112239": {
          "rotationOffset": 0,
          "uri": "360_0239.JPG",
          "tooltips": [
            {
              "text": "geri",
              "rotationY": 0,
              "linkedPhotoId": "112244"
            },
            {
              "text": "ileri",
              "rotationY": 30,
              "linkedPhotoId": "112240"
            }
          ]
        },
        "112240": {
          "rotationOffset": 0,
          "uri": "360_0240.JPG",
          "tooltips": [
            {
              "text": "sol",
              "rotationY": 0,
              "linkedPhotoId": "112239"
            },
            {
              "text": "sağ",
              "rotationY": 30,
              "linkedPhotoId": "112241"
            }
          ]
        },
        "112241": {
          "rotationOffset": 0,
          "uri": "360_0241.JPG",
          "tooltips": [
            {
              "text": "geri",
              "rotationY": 0,
              "linkedPhotoId": "112240"
            },
            {
              "text": "ileri",
              "rotationY": 30,
              "linkedPhotoId": "112242"
            }
          ]
        },
        "112242": {
          "rotationOffset": 0,
          "uri": "360_0242.JPG",
          "tooltips": [
            {
              "text": "geri",
              "rotationY": 0,
              "linkedPhotoId": "112243"
            },
            {
              "text": "ileri",
              "rotationY": 30,
              "linkedPhotoId": "112241"
            }
          ]
        },

        "112140": {
          "rotationOffset": 0,
          "uri": "360_0140.JPG",
          "tooltips": [
            {
              "text": "geri",
              "rotationY": 0,
              "linkedPhotoId": "112063"
            },
            {
              "text": "ileri",
              "rotationY": 30,
              "linkedPhotoId": "112141"
            }
          ]
        },
        "112141": {
          "rotationOffset": 0,
          "uri": "360_0141.JPG",
          "tooltips": [
            {
              "text": "geri",
              "rotationY": 0,
              "linkedPhotoId": "112140"
            },
            {
              "text": "ileri",
              "rotationY": 30,
              "linkedPhotoId": "112142"
            }
          ]
        },
        "112142": {
          "rotationOffset": 0,
          "uri": "360_0142.JPG",
          "tooltips": [
            {
              "text": "geri",
              "rotationY": 0,
              "linkedPhotoId": "112141"
            }
          ]
        },
        "112058": {
          "rotationOffset": 0,
          "uri": "360_0058.JPG",
          "tooltips": [
            {
              "text": "geri",
              "rotationY": 0,
              "linkedPhotoId": "112046"
            },
            {
              "text": "gir",
              "rotationY": 30,
              "linkedPhotoId": "112060"
            }
          ]
        },
        "112060": {
          "rotationOffset": 0,
          "uri": "360_0060.JPG",
          "tooltips": [
            {
              "text": "geri",
              "rotationY": 0,
              "linkedPhotoId": "112058"
            }
          ]
        },
        "112121": {
          "rotationOffset": 0,
          "uri": "360_0121.JPG",
          "tooltips": [
            {
              "text": "geri",
              "rotationY": 0,
              "linkedPhotoId": "112047"
            },
            {
              "text": "ileri",
              "rotationY": 30,
              "linkedPhotoId": "112122"
            }
          ]
        },
        "112122": {
          "rotationOffset": 0,
          "uri": "360_0122.JPG",
          "tooltips": [
            {
              "text": "ileri",
              "rotationY": -90,
              "linkedPhotoId": "112123"
            },
            {
              "text": "yukarı",
              "rotationY": 20,
              "linkedPhotoId": "112130"
            },
            {
              "text": "aşağı",
              "rotationY": 50,
              "linkedPhotoId": "112126"
            },
            {
              "text": "geri",
              "rotationY": 140,
              "linkedPhotoId": "112121"
            }
          ]
        },
        "112123": {
          "rotationOffset": 0,
          "uri": "360_0123.JPG",
          "tooltips": [
            {
              "text": "ileri",
              "rotationY": -90,
              "linkedPhotoId": "112124"
            },
            {
              "text": "geri",
              "rotationY": -160,
              "linkedPhotoId": "112122"
            }
          ]
        },
        "112124": {
          "rotationOffset": 0,
          "uri": "360_0124.JPG",
          "tooltips": [
            {
              "text": "ileri",
              "rotationY": -90,
              "linkedPhotoId": "112125"
            },
            {
              "text": "geri",
              "rotationY": -160,
              "linkedPhotoId": "112123"
            }
          ]
        },
        "112125": {
          "rotationOffset": 0,
          "uri": "360_0125.JPG",
          "tooltips": [

            {
              "text": "geri",
              "rotationY": -160,
              "linkedPhotoId": "112124"
            }

          ]
        },
        "112130": {
          "rotationOffset": 0,
          "uri": "360_0130.JPG",
          "tooltips": [
            {
              "text": "ileri",
              "rotationY": -90,
              "linkedPhotoId": "112131"
            },
            {
              "text": "yukarı",
              "rotationY": 20,
              "linkedPhotoId": "112136"
            },
            {
              "text": "aşağı",
              "rotationY": 50,
              "linkedPhotoId": "112122"
            }
          ]
        },
        "112131": {
          "rotationOffset": 0,
          "uri": "360_0131.JPG",
          "tooltips": [
            {
              "text": "ileri",
              "rotationY": -90,
              "linkedPhotoId": "112133"
            },
            {
              "text": "geri",
              "rotationY": -160,
              "linkedPhotoId": "112130"
            }
          ]
        },
        "112133": {
          "rotationOffset": 0,
          "uri": "360_0133.JPG",
          "tooltips": [
            {
              "text": "ileri",
              "rotationY": -90,
              "linkedPhotoId": "112135"
            },
            {
              "text": "geri",
              "rotationY": -160,
              "linkedPhotoId": "112131"
            }
          ]
        },
        "112135": {
          "rotationOffset": 0,
          "uri": "360_0135.JPG",
          "tooltips": [

            {
              "text": "geri",
              "rotationY": -160,
              "linkedPhotoId": "112133"
            }

          ]
        },
        "112136": {
          "rotationOffset": 0,
          "uri": "360_0136.JPG",
          "tooltips": [
            {
              "text": "ileri",
              "rotationY": -90,
              "linkedPhotoId": "112137"
            },
            {
              "text": "aşağı",
              "rotationY": 50,
              "linkedPhotoId": "112130"
            }
          ]
        },
        "112137": {
          "rotationOffset": 0,
          "uri": "360_0137.JPG",
          "tooltips": [
            {
              "text": "ileri",
              "rotationY": -90,
              "linkedPhotoId": "112138"
            },
            {
              "text": "geri",
              "rotationY": -160,
              "linkedPhotoId": "112136"
            }
          ]
        },
        "112138": {
          "rotationOffset": 0,
          "uri": "360_0138.JPG",
          "tooltips": [
            {
              "text": "ileri",
              "rotationY": -90,
              "linkedPhotoId": "112139"
            },
            {
              "text": "geri",
              "rotationY": -160,
              "linkedPhotoId": "112137"
            }
          ]
        },
        "112139": {
          "rotationOffset": 0,
          "uri": "360_0139.JPG",
          "tooltips": [

            {
              "text": "geri",
              "rotationY": -160,
              "linkedPhotoId": "112138"
            }

          ]
        },
        "112126": {
          "rotationOffset": 0,
          "uri": "360_0126.JPG",
          "tooltips": [
            {
              "text": "ileri",
              "rotationY": -90,
              "linkedPhotoId": "112127"
            },
            {
              "text": "yukarı",
              "rotationY": 20,
              "linkedPhotoId": "112122"
            },
            {
              "text": "aşağı",
              "rotationY": 50,
              "linkedPhotoId": "112129"
            }
          ]
        },
        "112127": {
          "rotationOffset": 0,
          "uri": "360_0127.JPG",
          "tooltips": [

            {
              "text": "geri",
              "rotationY": -160,
              "linkedPhotoId": "112126"
            }

          ]
        },
        "112129": {
          "rotationOffset": 0,
          "uri": "360_0129.JPG",
          "tooltips": [

            {
              "text": "yukarı",
              "rotationY": 20,
              "linkedPhotoId": "112126"
            }
          ]
        },
        "112274": {
          "rotationOffset": 0,
          "uri": "360_0274.JPG",
          "tooltips": [
            {
              "text": "next",
              "rotationY": 0,
              "linkedPhotoId": "112273"
            }
          ]
        },
        "112273": {
          "rotationOffset": 0,
          "uri": "360_0273.JPG",
          "tooltips": [
            {
              "text": "back",
              "rotationY": 0,
              "linkedPhotoId": "112274"
            }
          ]
        },

        "112220": {
          "rotationOffset": 0,
          "uri": "360_0220.JPG",
          "tooltips": [
            {
              "text": "next",
              "rotationY": 0,
              "linkedPhotoId": "112221"
            },
            {
              "text": "back",
              "rotationY": 140,
              "linkedPhotoId": "112335"
            }
          ]
        },
        "112221": {
          "rotationOffset": 0,
          "uri": "360_0221.JPG",
          "tooltips": [
            {
              "text": "next",
              "rotationY": 140,
              "linkedPhotoId": "112222"
            },
            {
              "text": "back",
              "rotationY": 0,
              "linkedPhotoId": "112220"
            }
          ]
        },
        "112222": {
          "rotationOffset": 0,
          "uri": "360_0222.JPG",
          "tooltips": [
            {
              "text": "next",
              "rotationY": 140,
              "linkedPhotoId": "112223"
            },

            {
              "text": "back",
              "rotationY": 0,
              "linkedPhotoId": "112221"
            }
          ]
        },
        "112223": {
          "rotationOffset": 0,
          "uri": "360_0223.JPG",
          "tooltips": [
            {
              "text": "next",
              "rotationY": 0,
              "linkedPhotoId": "112225"
            },
            {
              "text": "downstairs",
              "rotationY": 140,
              "linkedPhotoId": "112217"
            },
            {
              "text": "back",
              "rotationY": 100,
              "linkedPhotoId": "112222"
            }
          ]
        },
        "112225": {
          "rotationOffset": 0,
          "uri": "360_0225.JPG",
          "tooltips": [
            {
              "text": "next",
              "rotationY": 20,
              "linkedPhotoId": "112229"
            },
            {
              "text": "next2",
              "rotationY": 0,
              "linkedPhotoId": "112231"
            },
            {
              "text": "upstairs",
              "rotationY": -40,
              "linkedPhotoId": "112234"
            },
            {
              "text": "downstairs",
              "rotationY": -30,
              "linkedPhotoId": "112214"
            },
            {
              "text": "back",
              "rotationY": 140,
              "linkedPhotoId": "112223"
            }
          ]
        },
        "112229": {
          "rotationOffset": 0,
          "uri": "360_0229.JPG",
          "tooltips": [
            {
              "text": "next",
              "rotationY": 20,
              "linkedPhotoId": "112227"
            },
            {
              "text": "back",
              "rotationY": 100,
              "linkedPhotoId": "112225"
            }
          ]
        },
        "112231": {
          "rotationOffset": 0,
          "uri": "360_0231.JPG",
          "tooltips": [
            {
              "text": "back",
              "rotationY": 140,
              "linkedPhotoId": "112225"
            }

          ]
        },
        "112234": {
          "rotationOffset": 0,
          "uri": "360_0234.JPG",
          "tooltips": [

            {
              "text": "next",
              "rotationY": 0,
              "linkedPhotoId": "112235"
            },
            {

              "text": "back",
              "rotationY": 20,
              "linkedPhotoId": "112225"
            }

          ]
        },
        "112235": {
          "rotationOffset": 0,
          "uri": "360_0235.JPG",
          "tooltips": [

            {
              "text": "next",
              "rotationY": 20,
              "linkedPhotoId": "112236"
            },
            {

              "text": "back",
              "rotationY": 0,
              "linkedPhotoId": "112234"
            }

          ]
        },
        "112236": {
          "rotationOffset": 0,
          "uri": "360_0236.JPG",
          "tooltips": [

            {
              "text": "next",
              "rotationY": 20,
              "linkedPhotoId": "112238"
            },
            {
              "text": "sınıf",
              "rotationY": 40,
              "linkedPhotoId": "112237"
            },
            {

              "text": "back",
              "rotationY": 0,
              "linkedPhotoId": "112235"
            }

          ]
        },
        "112237": {
          "rotationOffset": 0,
          "uri": "360_0237.JPG",
          "tooltips": [


            {

              "text": "back",
              "rotationY": 0,
              "linkedPhotoId": "112236"
            }

          ]
        },
        "112238": {
          "rotationOffset": 0,
          "uri": "360_0238.JPG",
          "tooltips": [

            {
              "text": "ortak alan",
              "rotationY": 20,
              "linkedPhotoId": "112053"
            },
            {

              "text": "back",
              "rotationY": 0,
              "linkedPhotoId": "112236"
            }

          ]
        },
        "112227": {
          "rotationOffset": 0,
          "uri": "360_0227.JPG",
          "tooltips": [

            {
              "text": "nextHA",
              "rotationY": 90,
              "linkedPhotoId": "112202"
            },
            {

              "text": "back",
              "rotationY": -80,
              "linkedPhotoId": "112229"
            }

          ]
        },
        "112202": {
          "rotationOffset": 0,
          "uri": "360_0202.JPG",
          "tooltips": [

            {
              "text": "next",
              "rotationY": -80,
              "linkedPhotoId": "112201"
            },
            {
              "text": "next1",
              "rotationY": 50,
              "linkedPhotoId": "112203"
            },
            {

              "text": "back",
              "rotationY": 80,
              "linkedPhotoId": "112227"
            },
            {

              "text": "ortak alan",
              "rotationY": -50,
              "linkedPhotoId": "112053"
            }

          ]
        },
        "112201": {
          "rotationOffset": 0,
          "uri": "360_0201.JPG",
          "tooltips": [
            {

              "text": "back",
              "rotationY": 80,
              "linkedPhotoId": "112202"
            },
            {

              "text": "P blok",
              "rotationY": 30,
              "linkedPhotoId": "112200"
            }


          ]
        },
        "112203": {
          "rotationOffset": 0,
          "uri": "360_0203.JPG",
          "tooltips": [
            {
              "text": "next",
              "rotationY": 50,
              "linkedPhotoId": "112204"
            },
            {

              "text": "back",
              "rotationY": 80,
              "linkedPhotoId": "112202"
            }

          ]
        },
    "112204": {
      "rotationOffset": 0,
      "uri": "360_0204.JPG",
      "tooltips": [
        {

          "text": "back",
          "rotationY": 80,
          "linkedPhotoId": "112203"
        },
        {

          "text": "L Blok",
          "rotationY": 30,
          "linkedPhotoId": "112173"
        }
      ]
    },
     "112173": {
      "rotationOffset": 0,
      "uri": "360_0173.JPG",
      "tooltips": [

        {

          "text": "geri",
          "rotationY": 80,
          "linkedPhotoId": "112285"
        },
        {

          "text": "H Blok",
          "rotationY": 30,
          "linkedPhotoId": "112204"
        }


      ]
    },

        "112217": {
          "rotationOffset": 0,
          "uri": "360_0217.JPG",
          "tooltips": [

            {
              "text": "next",
              "rotationY": 140,
              "linkedPhotoId": "112218"
            },
            {
              "text": "next1",
              "rotationY": 20,
              "linkedPhotoId": "112215"
            },
            {

              "text": "back",
              "rotationY": 40,
              "linkedPhotoId": "112223"
            }

          ]
        },
        "112218": {
          "rotationOffset": 0,
          "uri": "360_0218.JPG",
          "tooltips": [

            {
              "text": "next",
              "rotationY": 140,
              "linkedPhotoId": "112219"
            },

            {

              "text": "back",
              "rotationY": -40,
              "linkedPhotoId": "112217"
            }

          ]
        },
        "112219": {
          "rotationOffset": 0,
          "uri": "360_0219.JPG",
          "tooltips": [

            {
              "text": "next",
              "rotationY": 140,
              "linkedPhotoId": "112219"
            },

            {

              "text": "back",
              "rotationY": -100,
              "linkedPhotoId": "112218"
            }

          ]
        },
        "112215": {
          "rotationOffset": 0,
          "uri": "360_0215.JPG",
          "tooltips": [

            {
              "text": "next",
              "rotationY": 140,
              "linkedPhotoId": "112214"
            },

            {

              "text": "back",
              "rotationY": -100,
              "linkedPhotoId": "112217"
            }

          ]
        },
        "112214": {
          "rotationOffset": 0,
          "uri": "360_0214.JPG",
          "tooltips": [

            {
              "text": "next",
              "rotationY": 80,
              "linkedPhotoId": "112232"
            },
            {
              "text": "upstairs",
              "rotationY": -100,
              "linkedPhotoId": "112225"
            },


            {

              "text": "back",
              "rotationY": -140,
              "linkedPhotoId": "112215"
            }

          ]
        },
        "112232": {
          "rotationOffset": 0,
          "uri": "360_0232.JPG",
          "tooltips": [

            {
              "text": "next",
              "rotationY": 80,
              "linkedPhotoId": "112233"
            },


            {

              "text": "back",
              "rotationY": -140,
              "linkedPhotoId": "112214"
            }

          ]
        },
        "112233": {
          "rotationOffset": 0,
          "uri": "360_0233.JPG",
          "tooltips": [

            {

              "text": "back",
              "rotationY": 80,
              "linkedPhotoId": "112232"
            }

          ]
        },

        "112174": {
          "rotationOffset": 150,
          "uri": "360_0174.JPG",
          "tooltips": [
            {
              "text": "İlerle",
              "rotationY": 30,
              "linkedPhotoId": "112176"
            },
            {
              "text": "Sınıflar",
              "rotationY": -90,
              "linkedPhotoId": "112285"
            },
            {
              "text": "Aşağı",
              "rotationY": 50,
              "linkedPhotoId": "112165"
            }
          ]
        },
        "112165": {
          "rotationOffSet": 0,
          "uri": "360_0165.JPG",
          "tooltips": [
            {
              "text": "Yukarı",
              "rotationY": 150,
              "linkedPhotoId": "112174"
            },
            {
              "text": "Sağ",
              "rotationY": -90,
              "linkedPhotoId": "112166"
            },
            {
              "text": "Sol",
              "rotationY": 0,
              "linkedPhotoId": "112169"
            }
          ]
        },

        "112169": {
          "rotationOffSet": 0,
          "uri": "360_0169.JPG",
          "tooltips": [
            {
              "text": "Geri",
              "rotationY": 0,
              "linkedPhotoId": "112165"
            },
            {
              "text": "İleri",
              "rotationY": 150,
              "linkedPhotoId": "112170"
            }
          ]
        },
        "112170": {
          "rotationOffSet": 0,
          "uri": "360_0170.JPG",
          "tooltips": [
            {
              "text": "Geri",
              "rotationY": 0,
              "linkedPhotoId": "112169"
            },
            {
              "text": "İleri",
              "rotationY": 150,
              "linkedPhotoId": "112171"
            }
          ]
        },
        "112171": {
          "rotationOffSet": 0,
          "uri": "360_0171.JPG",
          "tooltips": [
            {
              "text": "Geri",
              "rotationY": 0,
              "linkedPhotoId": "112170"
            },
            {
              "text": "İleri",
              "rotationY": 150,
              "linkedPhotoId": "112172"
            }
          ]
        },
        "112172": {
          "rotationOffSet": 0,
          "uri": "360_0172.JPG",
          "tooltips": [
            {
              "text": "Geri",
              "rotationY": 0,
              "linkedPhotoId": "112171"
            }
          ]
        },
        "112166": {
          "rotationOffSet": 0,
          "uri": "360_0166.JPG",
          "tooltips": [
            {
              "text": "Geri",
              "rotationY": 0,
              "linkedPhotoId": "112165"
            },
            {
              "text": "Sınıf",
              "rotationY": 90,
              "linkedPhotoId": "112168"
            },
            {
              "text": "İleri",
              "rotationY": 150,
              "linkedPhotoId": "112167"
            }
          ]
        },

        "112167": {
          "rotationOffSet": 0,
          "uri": "360_0167.JPG",
          "tooltips": [
            {
              "text": "Geri",
              "rotationY": 90,
              "linkedPhotoId": "112166"
            }
          ]
        },

        "112168": {
          "rotationOffSet": 0,
          "uri": "360_0168.JPG",
          "tooltips": [
            {
              "text": "Çık",
              "rotationY": 0,
              "linkedPhotoId": "112166"
            }
          ]
        },



        "112176": {
          "rotationOffset": 0,
          "uri": "360_0176.JPG",
          "tooltips": [
            {
              "text": "Hocalar",
              "rotationY": 170,
              "linkedPhotoId": "112177"
            },
            {
              "text": "Geri",
              "rotationY": -70,
              "linkedPhotoId": "112174"
            },
            {
              "text": "Sınıflar",
              "rotationY": -40,
              "linkedPhotoId": "112285"
            },
            {
              "text": "ÜstKat",
              "rotationY": -90,
              "linkedPhotoId": "112193"
            }
          ]
        },



        "112285": {
          "rotationOffset": 170,
          "uri": "360_0285.JPG",
          "tooltips": [
            {
              "text": "Gir",
              "rotationY": 10,
              "linkedPhotoId": "112286"
            },
            {
              "text": "geri",
              "rotationY": -90,
              "linkedPhotoId": "112174"
            },
             {
              "text": "ileri",
              "rotationY": 50,
              "linkedPhotoId": "112173"
            }
          ]
        },


        "112286": {
          "rotationOffset": 0,
          "uri": "360_0286.JPG",
          "tooltips": [
            {
              "text": "Cik",
              "rotationY": 170,
              "linkedPhotoId": "112285"
            }
          ]
        },

        "112177": {
          "rotationOffset": 0,
          "uri": "360_0177.JPG",
          "tooltips": [
            {
              "text": "ileri",
              "rotationY": 8,
              "linkedPhotoId": "112178"
            },
            {
              "text": "geri",
              "rotationY": 175,
              "linkedPhotoId": "112175"
            }
          ]
        },



        "112178": {
          "rotationOffset": 0,
          "uri": "360_0178.JPG",
          "tooltips": [
            {
              "text": "ileri",
              "rotationY": 8,
              "linkedPhotoId": "112179"
            },
            {
              "text": "geri",
              "rotationY": 175,
              "linkedPhotoId": "112177"
            }

          ]
        },


        "112179": {
          "rotationOffset": 0,
          "uri": "360_0179.JPG",
          "tooltips": [
            {
              "text": "geri",
              "rotationY": 175,
              "linkedPhotoId": "112178"
            }

          ]
        },

        "112193": {
          "rotationOffSet": 0,
          "uri": "360_0193.JPG",
          "tooltips": [
            {
              "text": "Sağ",
              "rotationY": -50,
              "linkedPhotoId": "112192"
            },
            {
              "text": "Hocalar",
              "rotationY": 170,
              "linkedPhotoId": "112180"
            },
            {
              "text": "ÜstKat",
              "rotationY": -80,
              "linkedPhotoId": "112212"
            },
            {
              "text": "AltKat",
              "rotationY": -95,
              "linkedPhotoId": "112176"
            }
          ]
        },
        "112212": {
          "rotationOffSet": 0,
          "uri": "360_0212.JPG",
          "tooltips": [
            {
              "text": "Aşağı",
              "rotationY": 0,
              "linkedPhotoId": "112193"
            },
            {
              "text": "İleri",
              "rotationY": -20,
              "linkedPhotoId": "112211"
            },
            {
              "text": "ÜstKat",
              "rotationY": 20,
              "linkedPhotoId": "112187"

            }

          ]
        },
        "112187": {
          "rotationOffSet": 0,
          "uri": "360_0187.JPG",
          "tooltips": [
            {
              "text": "Aşağı",
              "rotationY": 170,
              "linkedPhotoId": "112212"
            },
            {
              "text": "İleri",
              "rotationY": 20,
              "linkedPhotoId": "112186"
            },
            {
              "text": "Üst",
              "rotationY": 90,
              "linkedPhotoId": "112188"
            }
          ]
        },

        "112188": {
          "rotationOffSet": 0,
          "uri": "360_0188.JPG",
          "tooltips": [
            {
              "text": "Aşağı",
              "rotationY": 0,
              "linkedPhotoId": "112187"
            },
            {
              "text": "İleri",
              "rotationY": 90,
              "linkedPhotoId": "112189"
            }
          ]
        },
        "112189": {
          "rotationOffSet": 0,
          "uri": "360_0189.JPG",
          "tooltips": [
            {
              "text": "Geri",
              "rotationY": 90,
              "linkedPhotoId": "112188"
            }
          ]
        },

        "112186": {
          "rotationOffSet": 0,
          "uri": "360_0186.JPG",
          "tooltips": [
            {
              "text": "İleri",
              "rotationY": 45,
              "linkedPhotoId": "112185"
            },
            {
              "text": "Geri",
              "rotationY": "-40",
              "linkedPhotoId": "112187"
            }
          ]
        },
        "112185": {
          "rotationOffSet": 0,
          "uri": "360_0185.JPG",
          "tooltips": [
            {
              "text": "Geri",
              "rotationY": 0,
              "linkedPhotoId": "112186"
            },
            {
              "text": "İleri",
              "rotationY": 90,
              "linkedPhotoId": "112184"
            }
          ]
        },
        "112184": {
          "rotationOffSet": 0,
          "uri": "360_0184.JPG",
          "tooltips": [
            {
              "text": "Geri",
              "rotationY": 0,
              "linkedPhotoId": "112185"
            }
          ]
        },




        "112211": {
          "rotationOffSet": 0,
          "uri": "360_0211.JPG",
          "tooltips": [
            {
              "text": "Geri",
              "rotationY": -90,
              "linkedPhotoId": "112212"
            },
            {
              "text": "İleri",
              "rotationY": 90,
              "linkedPhotoId": "112209"
            }
          ]

        },
        "112209": {
          "rotationOffSet": 0,
          "uri": "360_0209.JPG",
          "tooltips": [
            {
              "text": "Geri",
              "rotationY": -90,
              "linkedPhotoId": "112211"
            },
            {
              "text": "İleri",
              "rotationY": 90,
              "linkedPhotoId": "112208"

            }
          ]
        },
        "112208": {
          "rotationOffSet": 0,
          "uri": "360_0208.JPG",
          "tooltips": [
            {
              "text": "Geri",
              "rotationY": -10,
              "linkedPhotoId": "112209"
            }
          ]
        },


        "112180": {
          "rotationOffSet": 0,
          "uri": "360_0180.JPG",
          "tooltips": [
            {
              "text": "İleri",
              "rotationY": 170,
              "linkedPhotoId": "112181"
            },
            {
              "text": "Geri",
              "rotationY": -10,
              "linkedPhotoId": "112193"
            }
          ]
        },
        "112181": {
          "rotationOffSet": 0,
          "uri": "360_0181.JPG",
          "tooltips": [
            {
              "text": "İleri",
              "rotationY": 155,
              "linkedPhotoId": "112182"
            },
            {
              "text": "geri",
              "rotationY": -30,
              "linkedPhotoId": "112180"
            }
          ]
        },

        "112182": {
          "rotationOffSet": 0,
          "uri": "360_0182.JPG",
          "tooltips": [
            {
              "text": "geri",
              "rotationY": 80,
              "linkedPhotoId": "112181"
            }

          ]

        },

        "112192": {
          "rotationOffSet": 0,
          "uri": "360_0192.JPG",
          "tooltips": [
            {
              "text": "İleri",
              "rotationY": 5,
              "linkedPhotoId": "112047"

            },
            {
              "text": "Geri",
              "rotationY": 115,
              "linkedPhotoId": "112193"
            }

          ]

        },

        "112332": {
          "rotationOffset": -85,
          "uri": "360_0332.JPG",
          "tooltips": [
            {
              "text": "ileri",
              "rotationY": 75,
              "linkedPhotoId": "112334"
            },
            {
              "text": "geri",
              "rotationY": -90,
              "linkedPhotoId": "112335"
            }
          ]
        },
        "112334": {
          "rotationOffset": 110,
          "uri": "360_0334.JPG",
          "tooltips": [
            {
              "text": "Üst Kat",
              "rotationY": -155,
              "linkedPhotoId": "112324"
            },
            {
              "text": "geri",
              "rotationY": -85,
              "linkedPhotoId": "112332"
            }
          ]
        },
        "112331": {
          "rotationOffset": 300,
          "uri": "360_0331.JPG",
          "tooltips": [
            {
              "text": "geri",
              "rotationY": 0,
              "linkedPhotoId": "112330"
            }
          ]
        },
        "112330": {
          "rotationOffset": 130,
          "uri": "360_0330.JPG",
          "tooltips": [
            {
              "text": "Üst Kat",
              "rotationY": 85,
              "linkedPhotoId": "112329"
            },
            {
              "text": "ileri",
              "rotationY": 0,
              "linkedPhotoId": "112331"
            },
            {
              "text": "geri",
              "rotationY": 175,
              "linkedPhotoId": "112335"
            }
          ]
        },
        "112329": {
          "rotationOffset": 0,
          "uri": "360_0329.JPG",
          "tooltips": [
            {
              "text": "aşağı",
              "rotationY": -158,
              "linkedPhotoId": "112330"
            },
            {
              "text": "yukarı",
              "rotationY": 160,
              "linkedPhotoId": "112326"
            }
          ]
        },
        "112327": {
          "rotationOffset": 250,
          "uri": "360_0327.JPG",
          "tooltips": [
            {
              "text": "geri",
              "rotationY": 85,
              "linkedPhotoId": "112326"
            }
          ]
        },
        "112326": {
          "rotationOffset": 250,
          "uri": "360_0326.JPG",
          "tooltips": [
            {
              "text": "İleri",
              "rotationY": -90,
              "linkedPhotoId": "112327"
            },
            {
              "text": "Alt Kat",
              "rotationY": 15,
              "linkedPhotoId": "112329"
            },
            {
              "text": "geri",
              "rotationY": 90,
              "linkedPhotoId": "112322"
            }
          ]
        },
        "112324": {
          "rotationOffset": 240,
          "uri": "360_0324.JPG",
          "tooltips": [
            {
              "text": "ileri",
              "rotationY": 175,
              "linkedPhotoId": "112323"
            },
            {
              "text": "Alt Kat",
              "rotationY": 40,
              "linkedPhotoId": "112334"
            }
          ]
        },
        "112323": {
          "rotationOffset": 5,
          "uri": "360_0323.JPG",
          "tooltips": [
            {
              "text": "geri",
              "rotationY": 175,
              "linkedPhotoId": "112324"
            },
            {
              "text": "ileri",
              "rotationY": 5,
              "linkedPhotoId": "112322"
            }
          ]
        },
        "112322": {
          "rotationOffset": 120,
          "uri": "360_0322.JPG",
          "tooltips": [
            {
              "text": "geri",
              "rotationY": 145,
              "linkedPhotoId": "112323"
            },
            {
              "text": "turuncu kapı",
              "rotationY": -115,
              "linkedPhotoId": "112326"
            }
          ]
        },
        "112275": {
          "rotationOffset": 0,
          "uri": "360_0275.JPG",
          "tooltips": [
            {
              "text": "ilerle",
              "rotationY": 150,
              "linkedPhotoId": "112278"
            },
            {
              "text": "öğrenci işleri",
              "rotationY": -30,
              "linkedPhotoId": "112273"
            }
          ]
        },
        "112278": {
          "rotationOffset": 0,
          "uri": "360_0278.JPG",
          "tooltips": [
            {
              "text": "ilerle",
              "rotationY": 150,
              "linkedPhotoId": "112279"
            },
            {
              "text": "geri",
              "rotationY": -150,
              "linkedPhotoId": "112275"
            }
          ]
        },
        "112279": {
          "rotationOffset": 0,
          "uri": "360_0279.JPG",
          "tooltips": [
            {
              "text": "yukarı",
              "rotationY": 150,
              "linkedPhotoId": "112283"
            },
            {
              "text": "geri",
              "rotationY": -150,
              "linkedPhotoId": "112278"
            }
          ]
        },
        "112283": {
          "rotationOffset": 0,
          "uri": "360_0283.JPG",
          "tooltips": [
            {
              "text": "ileri",
              "rotationY": 150,
              "linkedPhotoId": "112281"
            },
            {
              "text": "aşağı",
              "rotationY": -150,
              "linkedPhotoId": "112279"
            }
          ]
        },
        "112281": {
          "rotationOffset": 0,
          "uri": "360_0281.JPG",
          "tooltips": [
            {
              "text": "yukarı",
              "rotationY": -150,
              "linkedPhotoId": "112282"
            },
            {
              "text": "geri",
              "rotationY": 150,
              "linkedPhotoId": "112283"
            }
          ]
        },
        "112282": {
          "rotationOffset": 0,
          "uri": "360_0282.JPG",
          "tooltips": [
            {
              "text": "ileri",
              "rotationY": -150,
              "linkedPhotoId": "112280"
            },
            {
              "text": "aşağı",
              "rotationY": 150,
              "linkedPhotoId": "112281"
            }
          ]
        },
        "112280": {
          "rotationOffset": 0,
          "uri": "360_0280.JPG",
          "tooltips": [
            {
              "text": "geri",
              "rotationY": 150,
              "linkedPhotoId": "112282"
            }
          ]
        },
        "112287": {
          "rotationOffset": 0,
          "uri": "360_0287.JPG",
          "tooltips": [
            {
              "text": "sağ",
              "rotationY": 150,
              "linkedPhotoId": "112288"
            },
            {
              "text": "sol",
              "rotationY": -30,
              "linkedPhotoId": "112289"
            },
            {
              "text": "merdiven",
              "rotationY": 120,
              "linkedPhotoId": "112290"
            }
          ]
        },
        "112288": {
          "rotationOffset": 0,
          "uri": "360_0288.JPG",
          "tooltips": [
            {
              "text": "geri",
              "rotationY": 150,
              "linkedPhotoId": "112287"
            }
          ]
        },
        "112289": {
          "rotationOffset": 0,
          "uri": "360_0289.JPG",
          "tooltips": [
            {
              "text": "geri",
              "rotationY": 150,
              "linkedPhotoId": "112287"
            },
            {
              "text": "basketbol sahası",
              "rotationY": 120,
              "linkedPhotoId": "112310"
            }
          ]
        },
        "112290": {
          "rotationOffset": 0,
          "uri": "360_0290.JPG",
          "tooltips": [
            {
              "text": "geri",
              "rotationY": 150,
              "linkedPhotoId": "112287"
            },

            {
              "text": "yukarı",
              "rotationY": -30,
              "linkedPhotoId": "112291"
            }
          ]
        },
        "112291": {
          "rotationOffset": 0,
          "uri": "360_0291.JPG",
          "tooltips": [
            {
              "text": "aşağı",
              "rotationY": 150,
              "linkedPhotoId": "112290"
            },

            {
              "text": "ileri",
              "rotationY": -30,
              "linkedPhotoId": "112292"
            }
          ]
        },
        "112292": {
          "rotationOffset": 0,
          "uri": "360_0292.JPG",
          "tooltips": [
            {
              "text": "geri",
              "rotationY": 150,
              "linkedPhotoId": "112291"
            },
            {
              "text": "bilardo",
              "rotationY": 80,
              "linkedPhotoId": "112296"
            }
          ]
        },
        "112296": {
          "rotationOffset": 0,
          "uri": "360_0296.JPG",
          "tooltips": [
            {
              "text": "geri",
              "rotationY": 150,
              "linkedPhotoId": "112292"
            },
            {
              "text": "ileri-spor aletleri",
              "rotationY": -30,
              "linkedPhotoId": "112297"
            },
            {
              "text": "pilates odası",
              "rotationY": 120,
              "linkedPhotoId": "112293"
            },
            {
              "text": "oda",
              "rotationY": 100,
              "linkedPhotoId": "112294"
            }
          ]
        },
        "112294": {
          "rotationOffset": 0,
          "uri": "360_0294.JPG",
          "tooltips": [
            {
              "text": "geri",
              "rotationY": 150,
              "linkedPhotoId": "112296"
            },
            {
              "text": "ileri",
              "rotationY": -30,
              "linkedPhotoId": "112295"
            }
          ]
        },
        "112295": {
          "rotationOffset": 0,
          "uri": "360_0295.JPG",
          "tooltips": [
            {
              "text": "geri",
              "rotationY": 150,
              "linkedPhotoId": "112294"
            },
            {
              "text": "aşağı",
              "rotationY": -30,
              "linkedPhotoId": "112317"
            }
          ]
        },
        "112293": {
          "rotationOffset": 0,
          "uri": "360_0293.JPG",
          "tooltips": [
            {
              "text": "geri",
              "rotationY": 150,
              "linkedPhotoId": "112296"
            }
          ]
        },
        "112297": {
          "rotationOffset": 0,
          "uri": "360_0297.JPG",
          "tooltips": [
            {
              "text": "geri",
              "rotationY": 150,
              "linkedPhotoId": "112296"
            },
            {
              "text": "ileri",
              "rotationY": -30,
              "linkedPhotoId": "112298"
            }
          ]
        },
        "112298": {
          "rotationOffset": 0,
          "uri": "360_0298.JPG",
          "tooltips": [
            {
              "text": "geri",
              "rotationY": 150,
              "linkedPhotoId": "112297"
            },
            {
              "text": "ileri",
              "rotationY": -30,
              "linkedPhotoId": "112299"
            }
          ]
        },
        "112299": {
          "rotationOffset": 0,
          "uri": "360_0299.JPG",
          "tooltips": [
            {
              "text": "geri",
              "rotationY": 150,
              "linkedPhotoId": "112298"
            },
            {
              "text": "ileri",
              "rotationY": -30,
              "linkedPhotoId": "112300"
            }
          ]
        },
        "112300": {
          "rotationOffset": 0,
          "uri": "360_0300.JPG",
          "tooltips": [
            {
              "text": "geri",
              "rotationY": 150,
              "linkedPhotoId": "112299"
            },
            {
              "text": "ileri",
              "rotationY": -30,
              "linkedPhotoId": "112301"
            }
          ]
        },
        "112301": {
          "rotationOffset": 0,
          "uri": "360_0301.JPG",
          "tooltips": [
            {
              "text": "geri",
              "rotationY": 150,
              "linkedPhotoId": "112300"
            },
            {
              "text": "ileri",
              "rotationY": -30,
              "linkedPhotoId": "112302"
            }
          ]
        },
        "112302": {
          "rotationOffset": 0,
          "uri": "360_0302.JPG",
          "tooltips": [
            {
              "text": "geri",
              "rotationY": 150,
              "linkedPhotoId": "112301"
            },
            {
              "text": "ileri",
              "rotationY": -30,
              "linkedPhotoId": "112303"
            }
          ]
        },
        "112303": {
          "rotationOffset": 0,
          "uri": "360_0303.JPG",
          "tooltips": [
            {
              "text": "geri",
              "rotationY": 150,
              "linkedPhotoId": "112302"
            },
            {
              "text": "ileri",
              "rotationY": -30,
              "linkedPhotoId": "112304"
            }
          ]
        },
        "112304": {
          "rotationOffset": 0,
          "uri": "360_0304.JPG",
          "tooltips": [
            {
              "text": "geri",
              "rotationY": 150,
              "linkedPhotoId": "112303"
            },
            {
              "text": "masa tenisi",
              "rotationY": -30,
              "linkedPhotoId": "112306"
            },
            {
              "text": "basketbol sahası 1",
              "rotationY": 120,
              "linkedPhotoId": "112308"
            },
            {
              "text": "bir yer",
              "rotationY": -30,
              "linkedPhotoId": "112307"
            }
          ]
        },
        "112307": {
          "rotationOffset": 0,
          "uri": "360_0307.JPG",
          "tooltips": [
            {
              "text": "geri",
              "rotationY": 150,
              "linkedPhotoId": "112304"
            }
          ]
        },
        "112306": {
          "rotationOffset": 0,
          "uri": "360_0306.JPG",
          "tooltips": [
            {
              "text": "geri",
              "rotationY": 150,
              "linkedPhotoId": "112304"
            }
          ]
        },
        "112308": {
          "rotationOffset": 0,
          "uri": "360_0308.JPG",
          "tooltips": [
            {
              "text": "geri",
              "rotationY": 150,
              "linkedPhotoId": "112304"
            }
          ]
        },
        "112309": {
          "rotationOffset": 0,
          "uri": "360_0309.JPG",
          "tooltips": [
            {
              "text": "ileri",
              "rotationY": 30,
              "linkedPhotoId": "112310"
            }
          ]
        },
        "112310": {
          "rotationOffset": 0,
          "uri": "360_0310.JPG",
          "tooltips": [
            {
              "text": "geri",
              "rotationY": 150,
              "linkedPhotoId": "112309"
            },
            {
              "text": "yukarı",
              "rotationY": -30,
              "linkedPhotoId": "112317"
            },
            {
              "text": "kapı",
              "rotationY": 30,
              "linkedPhotoId": "112289"
            }
          ]
        },
        "112317": {
          "rotationOffset": 0,
          "uri": "360_0317.JPG",
          "tooltips": [
            {
              "text": "aşağı",
              "rotationY": 150,
              "linkedPhotoId": "112310"
            },
            {
              "text": "ileri",
              "rotationY": -30,
              "linkedPhotoId": "112318"
            },
            {
              "text": "yukarı",
              "rotationY": 120,
              "linkedPhotoId": "112295"
            }
          ]
        },
        "112318": {
          "rotationOffset": 0,
          "uri": "360_0318.JPG",
          "tooltips": [
            {
              "text": "geri",
              "rotationY": 150,
              "linkedPhotoId": "112317"
            }
          ]
        }
      }
    }
  
 
